…
# Task 2:

## Make new variable for the change life expectancy to show they have dropped

### We will pipe from gapminder

### We will mutate the lifeExp variable, which creates a new variable named droplifeExp

### In the mutation we will add the function lag() to our original object to shift the time back

    ## # A tibble: 1,704 x 7
    ##    country     continent  year lifeExp      pop gdpPercap droplifeExp
    ##    <fct>       <fct>     <int>   <dbl>    <int>     <dbl>       <dbl>
    ##  1 Afghanistan Asia       1952    28.8  8425333      779.        NA  
    ##  2 Afghanistan Asia       1957    30.3  9240934      821.        28.8
    ##  3 Afghanistan Asia       1962    32.0 10267083      853.        30.3
    ##  4 Afghanistan Asia       1967    34.0 11537966      836.        32.0
    ##  5 Afghanistan Asia       1972    36.1 13079460      740.        34.0
    ##  6 Afghanistan Asia       1977    38.4 14880372      786.        36.1
    ##  7 Afghanistan Asia       1982    39.9 12881816      978.        38.4
    ##  8 Afghanistan Asia       1987    40.8 13867957      852.        39.9
    ##  9 Afghanistan Asia       1992    41.7 16317921      649.        40.8
    ## 10 Afghanistan Asia       1997    41.8 22227415      635.        41.7
    ## # … with 1,694 more rows
# Task 3:

## filter gapminder to show max GDP per cap by each country

### We will pipe from gapminder

### Once again we will use the function select() to take the substes of country and GDP

### We will mutate the gdpPercap object in order to have a new object that represents the highest GDP per cap

### We will group by country, so it shows max GDP for each country

### We will filter gdpPercap\_max and use the max() function to show only the max GDP per cap

    ## # A tibble: 142 x 3
    ## # Groups:   country [142]
    ##    country     gdpPercap gdpPercap_max
    ##    <fct>           <dbl>         <dbl>
    ##  1 Afghanistan      978.          978.
    ##  2 Albania         5937.         5937.
    ##  3 Algeria         6223.         6223.
    ##  4 Angola          5523.         5523.
    ##  5 Argentina      12779.        12779.
    ##  6 Australia      34435.        34435.
    ##  7 Austria        36126.        36126.
    ##  8 Bahrain        29796.        29796.
    ##  9 Bangladesh      1391.         1391.
    ## 10 Belgium        33693.        33693.
    ## # … with 132 more rows
…
# Task 2:

## Categorical variable and Quantitative variable. Make summary and useful plots to visualize these variables. The variables used are flipper length and sex of the penguins

### We will use the function group\_by() to then summarise the specific rows we previously grouped

### We will ungroup()

### We will use ggplot() as we had done before, but this time adding geom\_jitter() to add random variability and solve overplotting

    ## `summarise()` has grouped output by 'flipper_length_mm'. You can override using the `.groups` argument.

    ## # A tibble: 99 x 5
    ##    flipper_length_mm sex    count  mean    sd
    ##                <int> <fct>  <int> <dbl> <dbl>
    ##  1               172 female     1   172    NA
    ##  2               174 female     1   174    NA
    ##  3               176 female     1   176    NA
    ##  4               178 female     3   178     0
    ##  5               178 male       1   178    NA
    ##  6               179 <NA>       1   179    NA
    ##  7               180 female     1   180    NA
    ##  8               180 male       3   180     0
    ##  9               180 <NA>       1   180    NA
    ## 10               181 female     6   181     0
    ## # … with 89 more rows
…
### The previous code is filtering gapminder and countries to include Rwanda and Afghanistan, however, a more efficient way to do this is using gapminder and piping ‘%\>%’, which means ‘and then…’ to filter the countries by using ‘%in%’ instead of ‘==’. ‘%in%’ has a similar property than ‘==’ except that it checks the input values against all the other values in the vector.

    ## # A tibble: 24 x 6
    ##    country     continent  year lifeExp      pop gdpPercap
    ##    <fct>       <fct>     <int>   <dbl>    <int>     <dbl>
    ##  1 Afghanistan Asia       1952    28.8  8425333      779.
    ##  2 Afghanistan Asia       1957    30.3  9240934      821.
    ##  3 Afghanistan Asia       1962    32.0 10267083      853.
    ##  4 Afghanistan Asia       1967    34.0 11537966      836.
    ##  5 Afghanistan Asia       1972    36.1 13079460      740.
    ##  6 Afghanistan Asia       1977    38.4 14880372      786.
    ##  7 Afghanistan Asia       1982    39.9 12881816      978.
    ##  8 Afghanistan Asia       1987    40.8 13867957      852.
    ##  9 Afghanistan Asia       1992    41.7 16317921      649.
    ## 10 Afghanistan Asia       1997    41.8 22227415      635.
    ## # … with 14 more rows
