Final Project
…
Summary of simple statistics for the variables of interest.

ny_cases %>%
  group_by(total_prisoner_cases, total_prisoner_deaths) %>%
  summarise(across(c(total_staff_cases),
    list(
      mean = ~ mean(.x, na.rm = TRUE),
      sd = ~ sd(.x, na.rm = TRUE),
      min = ~ min(.x, na.rm = TRUE),
      max = ~ max(.x, na.rm = TRUE))))

## `summarise()` has grouped output by 'total_prisoner_cases'. You can override using the `.groups` argument.

## # A tibble: 51 x 6
## # Groups:   total_prisoner_cases [51]
##    total_prisoner_ total_prisoner_ total_staff_cas total_staff_cas
##               <dbl>            <dbl>            <dbl>            <dbl>
##  1                3                0               40               NA
##  2               20                1              147               NA
##  3               62                2              381               NA
##  4              160                5              664               NA
##  5              239                6              844               NA
##  6              370               10             1045               NA
##  7              415               15             1143               NA
##  8              443               16             1192               NA
##  9              471               16             1228               NA
## 10              493               16             1275               NA
## #  with 41 more rows, and 2 more variables: total_staff_cases_min <dbl>,
## #   total_staff_cases_max <dbl>
…
