…
For your assignment, do the following.

1.  Inspect the item responses (e.g., with graphs or by summarizing
    distinct values). Is anything unusual?

<!-- end list -->

``` r
print(green_data)  #The -99 is unusual 
```

    ## # A tibble: 373 x 37
    ##    id    green1 green2 green3 green4 green5 comp1 comp2 comp3 comp4 comp5 comp6
    ##    <chr>  <dbl>  <dbl>  <dbl>  <dbl>  <dbl> <dbl> <dbl> <dbl> <dbl> <dbl> <dbl>
    ##  1 9099       4      2      5      4      3     2     5     4     4     2     2
    ##  2 6275       3      5      3      3      1     4     5     4     5     5     1
    ##  3 8116       4      2      5      4      3     4     5     5     4     5     1
    ##  4 8586       4      3      5      4      3     4     5     5     4     5     1
    ##  5 0406       3      2      4      4      4     4     4     4     4     4     2
    ##  6 5645       4      3      4      4      3     5     5     5     4     4     2
    ##  7 3788       1      1      1      1      1     3     3     3     3     3     3
    ##  8 8424       4      3      2      2      2     1     1     1     2     2     4
    ##  9 8450       4      2      3      5      2     4     4     4     4     4     1
    ## 10 0512       4      2      5      5      4     5     2     5     4     2     2
    ## # … with 363 more rows, and 25 more variables: comp7 <dbl>, comp8 <dbl>,
    ## #   comp9 <dbl>, comp10 <dbl>, intel1 <dbl>, intel2 <dbl>, intel3 <dbl>,
    ## #   intel4 <dbl>, intel5 <dbl>, intel6 <dbl>, intel7 <dbl>, intel8 <dbl>,
    ## #   intel9 <dbl>, intel10 <dbl>, open1 <dbl>, open2 <dbl>, open3 <dbl>,
    ## #   open4 <dbl>, open5 <dbl>, open6 <dbl>, open7 <dbl>, open8 <dbl>,
    ## #   open9 <dbl>, open10 <dbl>, student <dbl>
…
<!-- end list -->

``` r
#We will be recoding variables to make them more concrete and easier to read 

 new_green_data %>%
  rowwise() %>% 
  mutate(green_tot = sum(c_across(green1:green5), na.rm = TRUE),
         comp_tot = sum(c_across(comp1:comp10), na.rm = TRUE),
         intel_tot = sum(c_across(intel1:intel10), na.rm =TRUE),
         open_tot = sum(c_across(open1:open10), na.rm = TRUE)
   )
```

    ## # A tibble: 373 x 41
    ## # Rowwise: 
    ##    id    green1 green2 green3 green4 green5 comp1 comp2 comp3 comp4 comp5 comp6
    ##    <chr>  <dbl>  <dbl>  <dbl>  <dbl>  <dbl> <dbl> <dbl> <dbl> <dbl> <dbl> <dbl>
    ##  1 9099       4      2      5      4      3     2     5     4     4     2     2
    ##  2 6275       3      5      3      3      1     4     5     4     5     5     1
    ##  3 8116       4      2      5      4      3     4     5     5     4     5     1
    ##  4 8586       4      3      5      4      3     4     5     5     4     5     1
    ##  5 0406       3      2      4      4      4     4     4     4     4     4     2
    ##  6 5645       4      3      4      4      3     5     5     5     4     4     2
    ##  7 3788       1      1      1      1      1     3     3     3     3     3     3
    ##  8 8424       4      3      2      2      2     1     1     1     2     2     4
    ##  9 8450       4      2      3      5      2     4     4     4     4     4     1
    ## 10 0512       4      2      5      5      4     5     2     5     4     2     2
    ## # … with 363 more rows, and 29 more variables: comp7 <dbl>, comp8 <dbl>,
    ## #   comp9 <dbl>, comp10 <dbl>, intel1 <dbl>, intel2 <dbl>, intel3 <dbl>,
    ## #   intel4 <dbl>, intel5 <dbl>, intel6 <dbl>, intel7 <dbl>, intel8 <dbl>,
    ## #   intel9 <dbl>, intel10 <dbl>, open1 <dbl>, open2 <dbl>, open3 <dbl>,
    ## #   open4 <dbl>, open5 <dbl>, open6 <dbl>, open7 <dbl>, open8 <dbl>,
    ## #   open9 <dbl>, open10 <dbl>, student <dbl>, green_tot <dbl>, comp_tot <dbl>,
    ## #   intel_tot <dbl>, open_tot <dbl>

``` r
print(new_green_data
      )
```

    ## # A tibble: 373 x 37
    ##    id    green1 green2 green3 green4 green5 comp1 comp2 comp3 comp4 comp5 comp6
    ##    <chr>  <dbl>  <dbl>  <dbl>  <dbl>  <dbl> <dbl> <dbl> <dbl> <dbl> <dbl> <dbl>
    ##  1 9099       4      2      5      4      3     2     5     4     4     2     2
    ##  2 6275       3      5      3      3      1     4     5     4     5     5     1
    ##  3 8116       4      2      5      4      3     4     5     5     4     5     1
    ##  4 8586       4      3      5      4      3     4     5     5     4     5     1
    ##  5 0406       3      2      4      4      4     4     4     4     4     4     2
    ##  6 5645       4      3      4      4      3     5     5     5     4     4     2
    ##  7 3788       1      1      1      1      1     3     3     3     3     3     3
    ##  8 8424       4      3      2      2      2     1     1     1     2     2     4
    ##  9 8450       4      2      3      5      2     4     4     4     4     4     1
    ## 10 0512       4      2      5      5      4     5     2     5     4     2     2
    ## # … with 363 more rows, and 25 more variables: comp7 <dbl>, comp8 <dbl>,
    ## #   comp9 <dbl>, comp10 <dbl>, intel1 <dbl>, intel2 <dbl>, intel3 <dbl>,
    ## #   intel4 <dbl>, intel5 <dbl>, intel6 <dbl>, intel7 <dbl>, intel8 <dbl>,
    ## #   intel9 <dbl>, intel10 <dbl>, open1 <dbl>, open2 <dbl>, open3 <dbl>,
    ## #   open4 <dbl>, open5 <dbl>, open6 <dbl>, open7 <dbl>, open8 <dbl>,
    ## #   open9 <dbl>, open10 <dbl>, student <dbl>
…
  ng_data$student <- recode_factor(ng_data$student, "1" = "not a student", "2" = "student", .default = NULL)
  
  print(ng_data)
```

    ## # A tibble: 373 x 76
    ## # Rowwise: 
    ##    id    green1 green2 green3 green4 green5 comp1 comp2 comp3 comp4 comp5 comp6
    ##    <chr>  <dbl>  <dbl>  <dbl>  <dbl>  <dbl> <dbl> <dbl> <dbl> <dbl> <dbl> <dbl>
    ##  1 9099       4      2      5      4      3     2     5     4     4     2     2
    ##  2 6275       3      5      3      3      1     4     5     4     5     5     1
    ##  3 8116       4      2      5      4      3     4     5     5     4     5     1
    ##  4 8586       4      3      5      4      3     4     5     5     4     5     1
    ##  5 0406       3      2      4      4      4     4     4     4     4     4     2
    ##  6 5645       4      3      4      4      3     5     5     5     4     4     2
    ##  7 3788       1      1      1      1      1     3     3     3     3     3     3
    ##  8 8424       4      3      2      2      2     1     1     1     2     2     4
    ##  9 8450       4      2      3      5      2     4     4     4     4     4     1
    ## 10 0512       4      2      5      5      4     5     2     5     4     2     2
    ## # … with 363 more rows, and 64 more variables: comp7 <dbl>, comp8 <dbl>,
    ## #   comp9 <dbl>, comp10 <dbl>, intel1 <dbl>, intel2 <dbl>, intel3 <dbl>,
    ## #   intel4 <dbl>, intel5 <dbl>, intel6 <dbl>, intel7 <dbl>, intel8 <dbl>,
    ## #   intel9 <dbl>, intel10 <dbl>, open1 <dbl>, open2 <dbl>, open3 <dbl>,
    ## #   open4 <dbl>, open5 <dbl>, open6 <dbl>, open7 <dbl>, open8 <dbl>,
    ## #   open9 <dbl>, open10 <dbl>, student <fct>, green1_pomp <dbl>,
    ## #   green2_pomp <dbl>, green3_pomp <dbl>, green4_pomp <dbl>, green5_pomp <dbl>,
    ## #   comp1_pomp <dbl>, comp2_pomp <dbl>, comp3_pomp <dbl>, comp4_pomp <dbl>,
    ## #   comp5_pomp <dbl>, comp6_pomp <dbl>, comp7_pomp <dbl>, comp8_pomp <dbl>,
…
